tx_single_pulser/simulation/qsim/tx_single_pulser.msim.vcd
$comment
	File created using the following command:
		vcd file tx_single_pulser.msim.vcd -direction
$end
$date
	Fri Nov 24 20:50:36 2023
$end
$version
	ModelSim Version 10.1d
$end
$timescale
	1ps
$end
$scope module tx_single_pulser_vlg_vec_tst $end
$var reg 1 ! clk $end
$var reg 1 " reset_n $end
$var reg 1 # send_n $end
$var wire 1 $ pulse_out $end
$var wire 1 % sampler $end
$scope module i1 $end
$var wire 1 & gnd $end
$var wire 1 ' vcc $end
$var wire 1 ( unknown $end
$var tri1 1 ) devclrn $end
$var tri1 1 * devpor $end
$var tri1 1 + devoe $end
$var wire 1 , clk~combout $end
$var wire 1 - clk~clkctrl_outclk $end
$var wire 1 . send_n~combout $end
$var wire 1 / p_state~0_combout $end
$var wire 1 0 reset_n~combout $end
$var wire 1 1 reset_n~clkctrl_outclk $end
$var wire 1 2 p_state~regout $end
$var wire 1 3 n_pulse~0_combout $end
$var wire 1 4 p_pulse~regout $end
$upscope $end
$upscope $end
$enddefinitions $end
#0
$dumpvars
0!
1"
1#
0$
x%
0&
1'
x(
1)
1*
1+
0,
0-
1.
0/
10
11
02
03
04
$end
#10000
1!
1,
1-
0%
#20000
0!
0,
0-
1%
#30000
0#
1!
0.
1,
1-
0%
13
1/
#40000
0!
0,
0-
1%
#50000
1#
1!
1.
1,
1-
0%
03
0/
14
12
1$
#60000
0!
0,
0-
1%
#70000
1!
1,
1-
0%
04
02
0$
#80000
0!
0,
0-
1%
#90000
1!
1,
1-
0%
#100000
0!
0,
0-
1%
#110000
1!
1,
1-
0%
#120000
0#
0!
0.
0,
0-
1%
13
1/
#130000
1!
1,
1-
0%
14
12
03
1$
#140000
0!
0,
0-
1%
#150000
1!
1,
1-
0%
04
0$
#160000
0!
0,
0-
1%
#170000
1!
1,
1-
0%
#180000
1#
0!
1.
0,
0-
1%
0/
#190000
1!
1,
1-
0%
02
#200000
0!
0,
0-
1%
#210000
1!
1,
1-
0%
#220000
0#
0!
0.
0,
0-
1%
13
1/
#230000
1!
1,
1-
0%
14
12
03
1$
#240000
0!
0,
0-
1%
#250000
1!
1,
1-
0%
04
0$
#260000
0!
0,
0-
1%
#270000
0"
1!
00
1,
1-
01
0%
02
13
#280000
0!
0,
0-
1%
#290000
1"
1!
10
1,
1-
11
0%
14
12
03
1$
#300000
0!
0,
0-
1%
#310000
1!
1,
1-
0%
04
0$
#320000
0!
0,
0-
1%
#330000
1!
1,
1-
0%
#340000
0!
0,
0-
1%
#350000
1!
1,
1-
0%
#360000
1#
0!
1.
0,
0-
1%
0/
#370000
1!
1,
1-
0%
02
#380000
0"
0!
00
0,
0-
01
1%
#390000
1!
1,
1-
0%
#400000
1"
0!
10
0,
0-
11
1%
#410000
1!
1,
1-
0%
#420000
0!
0,
0-
1%
#430000
1!
1,
1-
0%
#440000
0!
0,
0-
1%
#450000
1!
1,
1-
0%
#460000
0!
0,
0-
1%
#470000
1!
1,
1-
0%
#480000
0!
0,
0-
1%
#490000
1!
1,
1-
0%
