tx_baud_counter/simulation/qsim/tx_baud_counter.msim.vcd
$comment
	File created using the following command:
		vcd file tx_baud_counter.msim.vcd -direction
$end
$date
	Fri Nov 24 20:09:32 2023
$end
$version
	ModelSim Version 10.1d
$end
$timescale
	1ps
$end
$scope module tx_baud_counter_vlg_vec_tst $end
$var reg 1 ! clk $end
$var reg 1 " reset_n $end
$var wire 1 # baud_out $end
$var wire 1 $ sampler $end
$scope module i1 $end
$var wire 1 % gnd $end
$var wire 1 & vcc $end
$var wire 1 ' unknown $end
$var tri1 1 ( devclrn $end
$var tri1 1 ) devpor $end
$var tri1 1 * devoe $end
$var wire 1 + Add0~16_combout $end
$var wire 1 , Add0~20_combout $end
$var wire 1 - clk~combout $end
$var wire 1 . clk~clkctrl_outclk $end
$var wire 1 / Add0~0_combout $end
$var wire 1 0 count~0_combout $end
$var wire 1 1 reset_n~combout $end
$var wire 1 2 reset_n~clkctrl_outclk $end
$var wire 1 3 Add0~1 $end
$var wire 1 4 Add0~2_combout $end
$var wire 1 5 Add0~3 $end
$var wire 1 6 Add0~4_combout $end
$var wire 1 7 count~1_combout $end
$var wire 1 8 Add0~5 $end
$var wire 1 9 Add0~7 $end
$var wire 1 : Add0~9 $end
$var wire 1 ; Add0~10_combout $end
$var wire 1 < Add0~11 $end
$var wire 1 = Add0~13 $end
$var wire 1 > Add0~14_combout $end
$var wire 1 ? Add0~15 $end
$var wire 1 @ Add0~17 $end
$var wire 1 A Add0~18_combout $end
$var wire 1 B Add0~19 $end
$var wire 1 C Add0~21 $end
$var wire 1 D Add0~22_combout $end
$var wire 1 E Add0~23 $end
$var wire 1 F Add0~24_combout $end
$var wire 1 G Equal0~0_combout $end
$var wire 1 H Add0~8_combout $end
$var wire 1 I Add0~6_combout $end
$var wire 1 J Equal0~2_combout $end
$var wire 1 K Add0~12_combout $end
$var wire 1 L Equal0~1_combout $end
$var wire 1 M Equal0~3_combout $end
$var wire 1 N count [12] $end
$var wire 1 O count [11] $end
$var wire 1 P count [10] $end
$var wire 1 Q count [9] $end
$var wire 1 R count [8] $end
$var wire 1 S count [7] $end
$var wire 1 T count [6] $end
$var wire 1 U count [5] $end
$var wire 1 V count [4] $end
$var wire 1 W count [3] $end
$var wire 1 X count [2] $end
$var wire 1 Y count [1] $end
$var wire 1 Z count [0] $end
$upscope $end
$upscope $end
$enddefinitions $end
#0
$dumpvars
0!
1"
0#
x$
0%
1&
x'
1(
1)
1*
0+
0,
0-
0.
1/
10
11
12
03
04
15
06
07
08
19
0:
0;
1<
0=
0>
1?
0@
0A
1B
0C
0D
1E
0F
1G
0H
0I
0J
0K
1L
0M
0Z
0Y
0X
0W
0V
0U
0T
0S
0R
0Q
0P
0O
0N
$end
#10000
1!
1-
1.
0$
1Z
0G
13
0/
14
00
#20000
0!
0-
0.
1$
#30000
1!
1-
1.
0$
1Y
0Z
05
04
1G
03
1/
16
15
14
10
17
06
07
#40000
0!
0-
0.
1$
#50000
1!
1-
1.
0$
1Z
0G
13
0/
05
04
00
16
17
#60000
0!
0-
0.
1$
#70000
1!
1-
1.
0$
1X
0Y
0Z
1J
18
06
15
14
1G
03
1/
1M
1I
07
08
16
04
10
00
0I
1#
#80000
0!
0-
0.
1$
#90000
1!
1-
1.
0$
0X
0J
06
0M
10
0#
#100000
0!
0-
0.
1$
#110000
1!
1-
1.
0$
1Z
0G
13
0/
14
00
#120000
0!
0-
0.
1$
#130000
1!
1-
1.
0$
1Y
0Z
05
04
1G
03
1/
16
15
14
10
17
06
07
#140000
0!
0-
0.
1$
#150000
1!
1-
1.
0$
1Z
0G
13
0/
05
04
00
16
17
#160000
0!
0-
0.
1$
#170000
1!
1-
1.
0$
1X
0Y
0Z
1J
18
06
15
14
1G
03
1/
1M
1I
07
08
16
04
10
00
0I
1#
#180000
0!
0-
0.
1$
#190000
1!
1-
1.
0$
0X
0J
06
0M
10
0#
#200000
0!
0-
0.
1$
#210000
1!
1-
1.
0$
1Z
0G
13
0/
14
00
#220000
0!
0-
0.
1$
#230000
1!
1-
1.
0$
1Y
0Z
05
04
1G
03
1/
16
15
14
10
17
06
07
#240000
0!
0-
0.
1$
#250000
1!
1-
1.
0$
1Z
0G
13
0/
05
04
00
16
17
#260000
0!
0-
0.
1$
#270000
1!
1-
1.
0$
1X
0Y
0Z
1J
18
06
15
14
1G
03
1/
1M
1I
07
08
16
04
10
00
0I
1#
#280000
0!
0-
0.
1$
#290000
1!
1-
1.
0$
0X
0J
06
0M
10
0#
#300000
0!
0-
0.
1$
#310000
1!
1-
1.
0$
1Z
0G
13
0/
14
00
#320000
0!
0-
0.
1$
#330000
1!
1-
1.
0$
1Y
0Z
05
04
1G
03
1/
16
15
14
10
17
06
07
#340000
0!
0-
0.
1$
#350000
1!
1-
1.
0$
1Z
0G
13
0/
05
04
00
16
17
#360000
0!
0-
0.
1$
#370000
1!
1-
1.
0$
1X
0Y
0Z
1J
18
06
15
14
1G
03
1/
1M
1I
07
08
16
04
10
00
0I
1#
#380000
0!
0-
0.
1$
#390000
1!
1-
1.
0$
0X
0J
06
0M
10
0#
#400000
0!
0-
0.
1$
#410000
1!
1-
1.
0$
1Z
0G
13
0/
14
00
#420000
0!
0-
0.
1$
#430000
0"
1!
01
1-
1.
02
0$
0Z
1G
03
1/
04
10
#440000
0!
0-
0.
1$
#450000
1!
1-
1.
0$
#460000
0!
0-
0.
1$
#470000
1"
1!
11
1-
1.
12
0$
1Z
0G
13
0/
14
00
#480000
0!
0-
0.
1$
#490000
1!
1-
1.
0$
1Y
0Z
05
04
1G
03
1/
16
15
14
10
17
06
07
#500000
0!
0-
0.
1$
#510000
1!
1-
1.
0$
1Z
0G
13
0/
05
04
00
16
17
#520000
0!
0-
0.
1$
#530000
1!
1-
1.
0$
1X
0Y
0Z
1J
18
06
15
14
1G
03
1/
1M
1I
07
08
16
04
10
00
0I
1#
#540000
0!
0-
0.
1$
#550000
1!
1-
1.
0$
0X
0J
06
0M
10
0#
#560000
0!
0-
0.
1$
#570000
1!
1-
1.
0$
1Z
0G
13
0/
14
00
#580000
0!
0-
0.
1$
#590000
1!
1-
1.
0$
1Y
0Z
05
04
1G
03
1/
16
15
14
10
17
06
07
#600000
0!
0-
0.
1$
#610000
1!
1-
1.
0$
1Z
0G
13
0/
05
04
00
16
17
#620000
0!
0-
0.
1$
#630000
1!
1-
1.
0$
1X
0Y
0Z
1J
18
06
15
14
1G
03
1/
1M
1I
07
08
16
04
10
00
0I
1#
#640000
0!
0-
0.
1$
#650000
1!
1-
1.
0$
0X
0J
06
0M
10
0#
#660000
0!
0-
0.
1$
#670000
1!
1-
1.
0$
1Z
0G
13
0/
14
00
#680000
0!
0-
0.
1$
#690000
1!
1-
1.
0$
1Y
0Z
05
04
1G
03
1/
16
15
14
10
17
06
07
#700000
0!
0-
0.
1$
#710000
1!
1-
1.
0$
1Z
0G
13
0/
05
04
00
16
17
#720000
0!
0-
0.
1$
#730000
1!
1-
1.
0$
1X
0Y
0Z
1J
18
06
15
14
1G
03
1/
1M
1I
07
08
16
04
10
00
0I
1#
#740000
0!
0-
0.
1$
#750000
1!
1-
1.
0$
0X
0J
06
0M
10
0#
#760000
0!
0-
0.
1$
#770000
1!
1-
1.
0$
1Z
0G
13
0/
14
00
#780000
0!
0-
0.
1$
#790000
1!
1-
1.
0$
1Y
0Z
05
04
1G
03
1/
16
15
14
10
17
06
07
#800000
0!
0-
0.
1$
#810000
1!
1-
1.
0$
1Z
0G
13
0/
05
04
00
16
17
#820000
0!
0-
0.
1$
#830000
1!
1-
1.
0$
1X
0Y
0Z
1J
18
06
15
14
1G
03
1/
1M
1I
07
08
16
04
10
00
0I
1#
#840000
0!
0-
0.
1$
#850000
1!
1-
1.
0$
0X
0J
06
0M
10
0#
#860000
0!
0-
0.
1$
#870000
1!
1-
1.
0$
1Z
0G
13
0/
14
00
#880000
0!
0-
0.
1$
#890000
1!
1-
1.
0$
1Y
0Z
05
04
1G
03
1/
16
15
14
10
17
06
07
#900000
0!
0-
0.
1$
#910000
1!
1-
1.
0$
1Z
0G
13
0/
05
04
00
16
17
#920000
0!
0-
0.
1$
#930000
1!
1-
1.
0$
1X
0Y
0Z
1J
18
06
15
14
1G
03
1/
1M
1I
07
08
16
04
10
00
0I
1#
#940000
0!
0-
0.
1$
#950000
1!
1-
1.
0$
0X
0J
06
0M
10
0#
#960000
0!
0-
0.
1$
#970000
1!
1-
1.
0$
1Z
0G
13
0/
14
00
#980000
0!
0-
0.
1$
#990000
1!
1-
1.
0$
1Y
0Z
05
04
1G
03
1/
16
15
14
10
17
06
07
