tx_bit_counter/simulation/qsim/tx_bit_counter.msim.vcd
$comment
	File created using the following command:
		vcd file tx_bit_counter.msim.vcd -direction
$end
$date
	Sat Nov 25 20:46:57 2023
$end
$version
	ModelSim Version 10.1d
$end
$timescale
	1ps
$end
$scope module tx_bit_counter_vlg_vec_tst $end
$var reg 1 ! clk $end
$var reg 1 " increment $end
$var reg 1 # reset_n $end
$var wire 1 $ done $end
$var wire 1 % sampler $end
$scope module i1 $end
$var wire 1 & gnd $end
$var wire 1 ' vcc $end
$var wire 1 ( unknown $end
$var tri1 1 ) devclrn $end
$var tri1 1 * devpor $end
$var tri1 1 + devoe $end
$var wire 1 , clk~combout $end
$var wire 1 - clk~clkctrl_outclk $end
$var wire 1 . increment~combout $end
$var wire 1 / count[1]~3_combout $end
$var wire 1 0 reset_n~combout $end
$var wire 1 1 reset_n~clkctrl_outclk $end
$var wire 1 2 count[2]~1_combout $end
$var wire 1 3 count[0]~0_combout $end
$var wire 1 4 Add0~0_combout $end
$var wire 1 5 count[3]~2_combout $end
$var wire 1 6 Equal0~0_combout $end
$var wire 1 7 count [3] $end
$var wire 1 8 count [2] $end
$var wire 1 9 count [1] $end
$var wire 1 : count [0] $end
$upscope $end
$upscope $end
$enddefinitions $end
#0
$dumpvars
0!
0"
1#
0$
x%
0&
1'
x(
1)
1*
1+
0,
0-
0.
0/
10
11
02
03
04
05
16
0:
09
08
07
$end
#10000
1!
1,
1-
0%
#20000
1"
0!
1.
0,
0-
1%
13
#30000
1!
1,
1-
0%
1:
03
1/
#40000
0"
0!
0.
0,
0-
1%
13
0/
#50000
1!
1,
1-
0%
#60000
1"
0!
1.
0,
0-
1%
03
1/
#70000
1!
1,
1-
0%
0:
19
13
#80000
0"
0!
0.
0,
0-
1%
03
#90000
1!
1,
1-
0%
#100000
1"
0!
1.
0,
0-
1%
13
#110000
1!
1,
1-
0%
1:
03
12
0/
#120000
0"
0!
0.
0,
0-
1%
13
02
1/
#130000
1!
1,
1-
0%
#140000
1"
0!
1.
0,
0-
1%
03
12
0/
#150000
1!
1,
1-
0%
0:
18
09
13
#160000
0"
0!
0.
0,
0-
1%
03
#170000
1!
1,
1-
0%
#180000
1"
0!
1.
0,
0-
1%
13
#190000
1!
1,
1-
0%
1:
03
1/
#200000
0"
0!
0.
0,
0-
1%
13
0/
#210000
1!
1,
1-
0%
#220000
1"
0!
1.
0,
0-
1%
03
1/
#230000
1!
1,
1-
0%
0:
19
13
#240000
0"
0!
0.
0,
0-
1%
03
#250000
1!
1,
1-
0%
#260000
1"
0!
1.
0,
0-
1%
13
#270000
1!
1,
1-
0%
1:
14
03
02
0/
15
#280000
0"
0!
0.
0,
0-
1%
05
13
12
1/
#290000
1!
1,
1-
0%
#300000
1"
0!
1.
0,
0-
1%
15
03
02
0/
#310000
1!
1,
1-
0%
17
0:
08
09
13
#320000
0"
0!
0.
0,
0-
1%
03
#330000
1!
1,
1-
0%
#340000
1"
0!
1.
0,
0-
1%
13
#350000
1!
1,
1-
0%
1:
03
1/
#360000
0"
0!
0.
0,
0-
1%
13
0/
#370000
1!
1,
1-
0%
#380000
1"
0!
1.
0,
0-
1%
03
1/
#390000
1!
1,
1-
0%
0:
19
06
13
1$
#400000
0"
0!
0.
0,
0-
1%
05
03
0/
#410000
1!
1,
1-
0%
07
09
16
04
0$
#420000
1"
0!
1.
0,
0-
1%
13
#430000
1!
1,
1-
0%
1:
03
1/
#440000
0"
0!
0.
0,
0-
1%
13
0/
#450000
1!
1,
1-
0%
#460000
1"
0!
1.
0,
0-
1%
03
1/
#470000
1!
1,
1-
0%
0:
19
13
#480000
0"
0!
0.
0,
0-
1%
03
#490000
1!
1,
1-
0%
#500000
1"
0!
1.
0,
0-
1%
13
#510000
1!
1,
1-
0%
1:
03
12
0/
#520000
0"
0!
0.
0,
0-
1%
13
02
1/
#530000
0#
1!
00
1,
1-
01
0%
09
0:
0/
03
#540000
1"
0!
1.
0,
0-
1%
13
#550000
1#
1!
10
1,
1-
11
0%
1:
03
1/
#560000
0"
0!
0.
0,
0-
1%
13
0/
#570000
1!
1,
1-
0%
#580000
1"
0!
1.
0,
0-
1%
03
1/
#590000
1!
1,
1-
0%
0:
19
13
#600000
0"
0!
0.
0,
0-
1%
03
#610000
1!
1,
1-
0%
#620000
1"
0!
1.
0,
0-
1%
13
#630000
1!
1,
1-
0%
1:
03
12
0/
#640000
0"
0!
0.
0,
0-
1%
13
02
1/
#650000
1!
1,
1-
0%
#660000
1"
0!
1.
0,
0-
1%
03
12
0/
#670000
1!
1,
1-
0%
0:
18
09
13
#680000
0"
0!
0.
0,
0-
1%
03
#690000
1!
1,
1-
0%
#700000
1"
0!
1.
0,
0-
1%
13
#710000
1!
1,
1-
0%
1:
03
1/
#720000
0"
0!
0.
0,
0-
1%
13
0/
#730000
1!
1,
1-
0%
#740000
1"
0!
1.
0,
0-
1%
03
1/
#750000
1!
1,
1-
0%
0:
19
13
#760000
0"
0!
0.
0,
0-
1%
03
#770000
1!
1,
1-
0%
#780000
1"
0!
1.
0,
0-
1%
13
#790000
1!
1,
1-
0%
1:
14
03
02
0/
15
#800000
0"
0!
0.
0,
0-
1%
05
13
12
1/
#810000
1!
1,
1-
0%
#820000
1"
0!
1.
0,
0-
1%
15
03
02
0/
#830000
1!
1,
1-
0%
17
0:
08
09
13
#840000
0"
0!
0.
0,
0-
1%
03
#850000
1!
1,
1-
0%
#860000
1"
0!
1.
0,
0-
1%
13
#870000
1!
1,
1-
0%
1:
03
1/
#880000
0"
0!
0.
0,
0-
1%
13
0/
#890000
1!
1,
1-
0%
#900000
1"
0!
1.
0,
0-
1%
03
1/
#910000
1!
1,
1-
0%
0:
19
06
13
1$
#920000
0"
0!
0.
0,
0-
1%
05
03
0/
#930000
1!
1,
1-
0%
07
09
16
04
0$
#940000
1"
0!
1.
0,
0-
1%
13
#950000
1!
1,
1-
0%
1:
03
1/
#960000
0"
0!
0.
0,
0-
1%
13
0/
#970000
1!
1,
1-
0%
#980000
1"
0!
1.
0,
0-
1%
03
1/
#990000
1!
1,
1-
0%
0:
19
13
