transmitter/simulation/qsim/transmitter.msim.vcd
$comment
	File created using the following command:
		vcd file transmitter.msim.vcd -direction
$end
$date
	Sat Nov 25 23:33:47 2023
$end
$version
	ModelSim Version 10.1d
$end
$timescale
	1ps
$end
$scope module transmitter_vlg_vec_tst $end
$var reg 1 ! CLOCK_50 $end
$var reg 7 " data_in [6:0] $end
$var reg 1 # reset_n $end
$var reg 1 $ send_n $end
$var wire 1 % baud_out $end
$var wire 1 & HEX2 [6] $end
$var wire 1 ' HEX2 [5] $end
$var wire 1 ( HEX2 [4] $end
$var wire 1 ) HEX2 [3] $end
$var wire 1 * HEX2 [2] $end
$var wire 1 + HEX2 [1] $end
$var wire 1 , HEX2 [0] $end
$var wire 1 - HEX3 [6] $end
$var wire 1 . HEX3 [5] $end
$var wire 1 / HEX3 [4] $end
$var wire 1 0 HEX3 [3] $end
$var wire 1 1 HEX3 [2] $end
$var wire 1 2 HEX3 [1] $end
$var wire 1 3 HEX3 [0] $end
$var wire 1 4 LEDG [1] $end
$var wire 1 5 LEDG [0] $end
$var wire 1 6 load $end
$var wire 1 7 parity_data [10] $end
$var wire 1 8 parity_data [9] $end
$var wire 1 9 parity_data [8] $end
$var wire 1 : parity_data [7] $end
$var wire 1 ; parity_data [6] $end
$var wire 1 < parity_data [5] $end
$var wire 1 = parity_data [4] $end
$var wire 1 > parity_data [3] $end
$var wire 1 ? parity_data [2] $end
$var wire 1 @ parity_data [1] $end
$var wire 1 A parity_data [0] $end
$var wire 1 B send_pulse $end
$var wire 1 C shift $end
$var wire 1 D sync_out1 $end
$var wire 1 E sync_out2 $end
$var wire 1 F UART_TXD $end
$var wire 1 G sampler $end
$scope module i1 $end
$var wire 1 H gnd $end
$var wire 1 I vcc $end
$var wire 1 J unknown $end
$var tri1 1 K devclrn $end
$var tri1 1 L devpor $end
$var tri1 1 M devoe $end
$var wire 1 N inst2|Add0~23 $end
$var wire 1 O inst2|Add0~24_combout $end
$var wire 1 P inst2|count~0_combout $end
$var wire 1 Q inst3|Add0~0_combout $end
$var wire 1 R inst3|count[2]~1_combout $end
$var wire 1 S inst3|Add0~1_combout $end
$var wire 1 T inst5|n_data[1]~3_combout $end
$var wire 1 U inst5|n_data[2]~4_combout $end
$var wire 1 V inst5|p_data[2]~0_combout $end
$var wire 1 W inst5|n_data[3]~5_combout $end
$var wire 1 X inst5|n_data[4]~6_combout $end
$var wire 1 Y inst5|n_data[5]~7_combout $end
$var wire 1 Z inst5|n_data[6]~8_combout $end
$var wire 1 [ inst5|n_data[7]~9_combout $end
$var wire 1 \ inst5|n_data[8]~10_combout $end
$var wire 1 ] inst5|n_data[9]~11_combout $end
$var wire 1 ^ inst5|n_data[10]~12_combout $end
$var wire 1 _ inst5|p_data[10]~feeder_combout $end
$var wire 1 ` send_n~combout $end
$var wire 1 a inst15|sync_out~0_combout $end
$var wire 1 b inst15|sync_out~regout $end
$var wire 1 c inst16|sync_out~regout $end
$var wire 1 d reset_n~combout $end
$var wire 1 e inst6|p_state~regout $end
$var wire 1 f inst6|n_pulse~0_combout $end
$var wire 1 g inst6|p_pulse~regout $end
$var wire 1 h inst2|Add0~0_combout $end
$var wire 1 i inst2|Add0~1 $end
$var wire 1 j inst2|Add0~2_combout $end
$var wire 1 k inst2|Add0~3 $end
$var wire 1 l inst2|Add0~4_combout $end
$var wire 1 m inst2|Add0~5 $end
$var wire 1 n inst2|Add0~6_combout $end
$var wire 1 o inst2|count~3_combout $end
$var wire 1 p inst2|Add0~7 $end
$var wire 1 q inst2|Add0~8_combout $end
$var wire 1 r inst2|count~4_combout $end
$var wire 1 s inst2|Add0~9 $end
$var wire 1 t inst2|Add0~11 $end
$var wire 1 u inst2|Add0~12_combout $end
$var wire 1 v inst2|count~2_combout $end
$var wire 1 w inst2|Add0~13 $end
$var wire 1 x inst2|Add0~14_combout $end
$var wire 1 y inst2|Add0~15 $end
$var wire 1 z inst2|Add0~17 $end
$var wire 1 { inst2|Add0~18_combout $end
$var wire 1 | inst2|Add0~16_combout $end
$var wire 1 } inst2|Equal0~1_combout $end
$var wire 1 ~ inst2|Add0~10_combout $end
$var wire 1 !! inst2|Equal0~2_combout $end
$var wire 1 "! inst2|Add0~19 $end
$var wire 1 #! inst2|Add0~20_combout $end
$var wire 1 $! inst2|count~1_combout $end
$var wire 1 %! inst2|Add0~21 $end
$var wire 1 &! inst2|Add0~22_combout $end
$var wire 1 '! inst2|Equal0~0_combout $end
$var wire 1 (! inst2|Equal0~3_combout $end
$var wire 1 )! inst3|count[0]~0_combout $end
$var wire 1 *! inst4|shift~0_combout $end
$var wire 1 +! inst4|shift~1_combout $end
$var wire 1 ,! inst3|count[3]~2_combout $end
$var wire 1 -! inst3|count[1]~3_combout $end
$var wire 1 .! inst3|Equal0~0_combout $end
$var wire 1 /! inst4|n_state~2_combout $end
$var wire 1 0! inst4|p_state~regout $end
$var wire 1 1! inst4|load~0_combout $end
$var wire 1 2! CLOCK_50~combout $end
$var wire 1 3! CLOCK_50~clkctrl_outclk $end
$var wire 1 4! inst5|n_data[0]~2_combout $end
$var wire 1 5! inst1|WideOr0~0_combout $end
$var wire 1 6! inst1|WideOr1~0_combout $end
$var wire 1 7! inst1|WideOr2~0_combout $end
$var wire 1 8! inst1|WideOr3~0_combout $end
$var wire 1 9! inst1|WideOr4~0_combout $end
$var wire 1 :! inst1|WideOr5~0_combout $end
$var wire 1 ;! inst1|WideOr6~0_combout $end
$var wire 1 <! inst|WideOr0~0_combout $end
$var wire 1 =! inst|WideOr1~0_combout $end
$var wire 1 >! inst|WideOr2~0_combout $end
$var wire 1 ?! inst|WideOr3~0_combout $end
$var wire 1 @! inst|Decoder0~0_combout $end
$var wire 1 A! inst|WideOr5~0_combout $end
$var wire 1 B! inst|WideOr6~0_combout $end
$var wire 1 C! inst7|WideXor0~0_combout $end
$var wire 1 D! inst7|WideXor0~combout $end
$var wire 1 E! inst2|count [12] $end
$var wire 1 F! inst2|count [11] $end
$var wire 1 G! inst2|count [10] $end
$var wire 1 H! inst2|count [9] $end
$var wire 1 I! inst2|count [8] $end
$var wire 1 J! inst2|count [7] $end
$var wire 1 K! inst2|count [6] $end
$var wire 1 L! inst2|count [5] $end
$var wire 1 M! inst2|count [4] $end
$var wire 1 N! inst2|count [3] $end
$var wire 1 O! inst2|count [2] $end
$var wire 1 P! inst2|count [1] $end
$var wire 1 Q! inst2|count [0] $end
$var wire 1 R! inst3|count [3] $end
$var wire 1 S! inst3|count [2] $end
$var wire 1 T! inst3|count [1] $end
$var wire 1 U! inst3|count [0] $end
$var wire 1 V! inst5|p_data [10] $end
$var wire 1 W! inst5|p_data [9] $end
$var wire 1 X! inst5|p_data [8] $end
$var wire 1 Y! inst5|p_data [7] $end
$var wire 1 Z! inst5|p_data [6] $end
$var wire 1 [! inst5|p_data [5] $end
$var wire 1 \! inst5|p_data [4] $end
$var wire 1 ]! inst5|p_data [3] $end
$var wire 1 ^! inst5|p_data [2] $end
$var wire 1 _! inst5|p_data [1] $end
$var wire 1 `! inst5|p_data [0] $end
$var wire 1 a! data_in~combout [6] $end
$var wire 1 b! data_in~combout [5] $end
$var wire 1 c! data_in~combout [4] $end
$var wire 1 d! data_in~combout [3] $end
$var wire 1 e! data_in~combout [2] $end
$var wire 1 f! data_in~combout [1] $end
$var wire 1 g! data_in~combout [0] $end
$upscope $end
$upscope $end
$enddefinitions $end
#0
$dumpvars
0!
bx "
x#
1$
0%
x,
x+
x*
x)
x(
x'
x&
x3
x2
x1
x0
x/
x.
x-
15
x4
06
1A
0@
x?
x>
x=
x<
x;
x:
x9
x8
17
0B
0C
1D
1E
1F
xG
0H
1I
xJ
1K
1L
1M
1N
0O
0P
0Q
0R
0S
0T
xU
0V
xW
xX
xY
xZ
x[
x\
x]
0^
1_
1`
0a
0b
0c
xd
0e
0f
0g
1h
0i
0j
1k
0l
0m
0n
0o
1p
0q
0r
0s
1t
0u
0v
0w
0x
1y
0z
0{
0|
1}
0~
1!!
1"!
0#!
0$!
0%!
0&!
1'!
1(!
0)!
1*!
1+!
0,!
0-!
1.!
0/!
00!
01!
02!
03!
04!
x5!
x6!
x7!
x8!
x9!
x:!
x;!
x<!
x=!
x>!
x?!
x@!
xA!
xB!
xC!
xD!
0Q!
0P!
0O!
0N!
0M!
0L!
0K!
0J!
0I!
0H!
0G!
0F!
0E!
0U!
0T!
0S!
0R!
0`!
0_!
0^!
0]!
0\!
0[!
0Z!
0Y!
0X!
0W!
0V!
xg!
xf!
xe!
xd!
xc!
xb!
xa!
$end
#10000
1!
12!
13!
0G
1Q!
1i
0h
1j
#20000
0!
02!
03!
1G
#30000
0$
1!
0`
12!
13!
0G
1a
1P!
0Q!
0k
0j
0i
1h
1l
1k
1j
0l
#40000
0!
02!
03!
1G
#50000
1$
1!
1`
12!
13!
0G
0a
1Q!
1b
1i
0h
0D
0k
0j
1l
#60000
0!
02!
03!
1G
#70000
1!
12!
13!
0G
1O!
0P!
0Q!
1c
0b
1m
0l
1k
1j
0i
1h
1f
0E
05
1D
1n
0m
1l
0j
1o
0n
0o
#80000
0!
02!
03!
1G
#90000
1!
12!
13!
0G
1Q!
1g
1e
0c
1i
0h
11!
1/!
1^
1V
0f
1B
1E
15
1j
16
#100000
0!
02!
03!
1G
#110000
1!
12!
13!
0G
10!
1P!
0Q!
0g
0e
1V!
xW!
xX!
xY!
xZ!
x[!
x\!
x]!
x^!
01!
0*!
0^
0V
0k
0j
0i
1h
0B
1m
0l
1k
1j
06
1n
0m
1l
1o
0n
0o
#120000
0!
02!
03!
1G
#130000
1!
12!
13!
0G
1Q!
1i
0h
0k
0j
1m
0l
1n
1o
#140000
0!
02!
03!
1G
#150000
1!
12!
13!
0G
1N!
0O!
0P!
0Q!
0p
0n
0m
1l
1*!
1k
1j
0i
1h
1q
0o
1p
1n
0l
0j
1r
0q
1o
0r
#160000
0!
02!
03!
1G
#170000
1!
12!
13!
0G
1Q!
1i
0h
1j
#180000
0!
02!
03!
1G
#190000
0$
1!
0`
12!
13!
0G
1a
1P!
0Q!
0*!
0k
0j
0i
1h
1l
1k
1j
0l
#200000
0!
02!
03!
1G
#210000
1!
12!
13!
0G
1Q!
1b
1i
0h
0D
0k
0j
1l
#220000
0!
02!
03!
1G
#230000
1!
12!
13!
0G
1O!
0P!
0Q!
1c
1m
0l
1*!
1k
1j
0i
1h
1f
0E
05
0p
0n
0m
1l
0j
1q
0o
1p
1n
1r
0q
1o
0r
#240000
0!
02!
03!
1G
#250000
1!
12!
13!
0G
1Q!
1g
1e
1i
0h
0f
1B
1j
#260000
0!
02!
03!
1G
#270000
1!
12!
13!
0G
1P!
0Q!
0g
0*!
0k
0j
0i
1h
0B
1m
0l
1k
1j
0p
0n
0m
1l
1q
0o
1p
1n
1r
0q
1o
0r
#280000
0!
02!
03!
1G
#290000
1$
1!
1`
12!
13!
0G
0a
1Q!
1i
0h
0k
0j
1m
0l
0p
0n
1q
0o
1r
#300000
0!
02!
03!
1G
#310000
1!
12!
13!
0G
1M!
0N!
0O!
0P!
0Q!
0b
1s
0q
1p
1n
0m
1l
1*!
1k
1j
0i
1h
1D
1~
0r
0s
1q
1o
0n
0l
0j
0~
1r
0o
#320000
0!
02!
03!
1G
#330000
1!
12!
13!
0G
1Q!
0c
1i
0h
1E
15
1j
#340000
0!
02!
03!
1G
#350000
1!
12!
13!
0G
1P!
0Q!
0e
0*!
0k
0j
0i
1h
1l
1k
1j
0l
#360000
0!
02!
03!
1G
#370000
1!
12!
13!
0G
1Q!
1i
0h
0k
0j
1l
#380000
0!
02!
03!
1G
#390000
1!
12!
13!
0G
1O!
0P!
0Q!
0!!
1m
0l
1*!
1k
1j
0i
1h
1n
0m
1l
0j
1o
0n
0o
#400000
0!
02!
03!
1G
#410000
1!
12!
13!
0G
1Q!
1i
0h
1j
#420000
0!
02!
03!
1G
#430000
1!
12!
13!
0G
1P!
0Q!
0*!
0k
0j
0i
1h
1m
0l
1k
1j
1n
0m
1l
1o
0n
0o
#440000
0!
02!
03!
1G
#450000
1!
12!
13!
0G
1Q!
1i
0h
0k
0j
1m
0l
1n
1o
#460000
0!
02!
03!
1G
#470000
1!
12!
13!
0G
1N!
0O!
0P!
0Q!
1!!
0p
0n
0m
1l
1*!
1k
1j
0i
1h
1s
0q
0o
1p
1n
0l
0j
1~
0r
0s
1q
1o
0~
1r
#480000
0!
02!
03!
1G
#490000
1!
12!
13!
0G
1Q!
1i
0h
1j
