tx_shift_register/simulation/qsim/tx_shift_register.msim.vcd
$comment
	File created using the following command:
		vcd file tx_shift_register.msim.vcd -direction
$end
$date
	Fri Nov 24 20:48:55 2023
$end
$version
	ModelSim Version 10.1d
$end
$timescale
	1ps
$end
$scope module tx_shift_register_vlg_vec_tst $end
$var reg 1 ! clk $end
$var reg 11 " data_in [10:0] $end
$var reg 1 # load $end
$var reg 1 $ reset_n $end
$var reg 1 % shift $end
$var wire 1 & txData $end
$var wire 1 ' sampler $end
$scope module i1 $end
$var wire 1 ( gnd $end
$var wire 1 ) vcc $end
$var wire 1 * unknown $end
$var tri1 1 + devclrn $end
$var tri1 1 , devpor $end
$var tri1 1 - devoe $end
$var wire 1 . clk~combout $end
$var wire 1 / clk~clkctrl_outclk $end
$var wire 1 0 shift~combout $end
$var wire 1 1 load~combout $end
$var wire 1 2 n_data[10]~11_combout $end
$var wire 1 3 reset_n~combout $end
$var wire 1 4 reset_n~clkctrl_outclk $end
$var wire 1 5 n_data[9]~10_combout $end
$var wire 1 6 p_data[1]~0_combout $end
$var wire 1 7 n_data[8]~9_combout $end
$var wire 1 8 n_data[7]~8_combout $end
$var wire 1 9 n_data[6]~7_combout $end
$var wire 1 : n_data[5]~6_combout $end
$var wire 1 ; n_data[4]~5_combout $end
$var wire 1 < n_data[3]~4_combout $end
$var wire 1 = n_data[2]~3_combout $end
$var wire 1 > n_data[1]~2_combout $end
$var wire 1 ? n_data[0]~0_combout $end
$var wire 1 @ n_data[0]~1_combout $end
$var wire 1 A p_data [10] $end
$var wire 1 B p_data [9] $end
$var wire 1 C p_data [8] $end
$var wire 1 D p_data [7] $end
$var wire 1 E p_data [6] $end
$var wire 1 F p_data [5] $end
$var wire 1 G p_data [4] $end
$var wire 1 H p_data [3] $end
$var wire 1 I p_data [2] $end
$var wire 1 J p_data [1] $end
$var wire 1 K p_data [0] $end
$var wire 1 L data_in~combout [10] $end
$var wire 1 M data_in~combout [9] $end
$var wire 1 N data_in~combout [8] $end
$var wire 1 O data_in~combout [7] $end
$var wire 1 P data_in~combout [6] $end
$var wire 1 Q data_in~combout [5] $end
$var wire 1 R data_in~combout [4] $end
$var wire 1 S data_in~combout [3] $end
$var wire 1 T data_in~combout [2] $end
$var wire 1 U data_in~combout [1] $end
$var wire 1 V data_in~combout [0] $end
$upscope $end
$upscope $end
$enddefinitions $end
#0
$dumpvars
0!
b10101010001 "
0#
1$
0%
1&
x'
0(
1)
x*
1+
1,
1-
0.
0/
00
01
02
13
14
05
06
17
08
19
0:
1;
0<
0=
0>
1?
0@
0K
0J
0I
0H
0G
0F
0E
0D
0C
0B
0A
1V
0U
0T
0S
1R
0Q
1P
0O
1N
0M
1L
$end
#10000
1!
1.
1/
0'
#20000
0!
0.
0/
1'
#30000
1#
1!
11
1.
1/
0'
16
12
#40000
0!
0.
0/
1'
#50000
1%
0#
1!
10
01
1.
1/
0'
0?
0;
09
07
1@
1G
1E
1C
1A
1<
1:
18
15
#60000
0!
0.
0/
1'
#70000
0%
1!
00
1.
1/
0'
1?
0<
1;
0:
19
08
17
06
05
0@
1K
1H
0G
1F
0E
1D
0C
1B
0?
0&
1@
#80000
0!
0.
0/
1'
#90000
1%
1!
10
1.
1/
0'
1=
16
15
#100000
0!
0.
0/
1'
#110000
0%
1!
00
1.
1/
0'
0=
06
05
1I
0H
1G
0F
1E
0D
1C
#120000
0!
0.
0/
1'
#130000
1%
1!
10
1.
1/
0'
1>
1<
0;
1:
09
18
16
15
#140000
0!
0.
0/
1'
#150000
0%
1!
00
1.
1/
0'
0>
0<
1;
0:
19
08
06
05
1J
0I
1H
0G
1F
0E
1D
#160000
0!
0.
0/
1'
#170000
1%
1!
10
1.
1/
0'
0@
1=
18
16
15
#180000
0!
0.
0/
1'
#190000
0%
1!
00
1.
1/
0'
1@
0=
08
06
05
0K
0J
1I
0H
1G
0F
1E
1?
1&
0@
#200000
0!
0.
0/
1'
#210000
1%
1!
10
1.
1/
0'
0?
1>
1<
0;
1:
18
16
15
1@
#220000
0!
0.
0/
1'
#230000
0%
1!
00
1.
1/
0'
1?
0>
0<
1;
0:
08
06
05
0@
1K
1J
0I
1H
0G
1F
0?
0&
1@
#240000
0!
0.
0/
1'
#250000
1%
1!
10
1.
1/
0'
0@
1=
1:
18
16
15
#260000
0!
0.
0/
1'
#270000
0%
1!
00
1.
1/
0'
1@
0=
0:
08
06
05
0K
0J
1I
0H
1G
1?
1&
0@
#280000
0!
0.
0/
1'
#290000
1%
1!
10
1.
1/
0'
0?
1>
1<
1:
18
16
15
1@
#300000
0!
0.
0/
1'
#310000
0%
1!
00
1.
1/
0'
1?
0>
0<
0:
08
06
05
0@
1K
1J
0I
1H
0?
0&
1@
#320000
0!
0.
0/
1'
#330000
1%
1!
10
1.
1/
0'
0@
1=
1<
1:
18
16
15
#340000
0!
0.
0/
1'
#350000
0%
1!
00
1.
1/
0'
1@
0=
0<
0:
08
06
05
0K
0J
1I
1?
1&
0@
#360000
0!
0.
0/
1'
#370000
1%
1!
10
1.
1/
0'
0?
1>
1=
1<
1:
18
16
15
1@
#380000
0!
0.
0/
1'
#390000
0%
1!
00
1.
1/
0'
1?
0>
0=
0<
0:
08
06
05
0@
1K
1J
0?
0&
1@
#400000
0!
0.
0/
1'
#410000
1%
1!
10
1.
1/
0'
0@
1>
1=
1<
1:
18
16
15
#420000
0!
0.
0/
1'
#430000
0%
1!
00
1.
1/
0'
1@
0>
0=
0<
0:
08
06
05
0K
1?
1&
0@
#440000
0!
0.
0/
1'
#450000
1!
1.
1/
0'
#460000
0!
0.
0/
1'
#470000
1!
1.
1/
0'
#480000
0!
0.
0/
1'
#490000
1!
1.
1/
0'
#500000
0!
0.
0/
1'
#510000
1#
1!
11
1.
1/
0'
16
#520000
0!
0.
0/
1'
#530000
1%
0#
1!
10
01
1.
1/
0'
0?
1>
1=
1<
1:
18
15
0J
0I
0H
0F
0D
0B
1@
0>
0=
0;
09
07
#540000
0!
0.
0/
1'
#550000
0%
1!
00
1.
1/
0'
1?
0<
1;
0:
19
08
17
06
05
0@
1K
1H
0G
1F
0E
1D
0C
1B
0?
0&
1@
#560000
0!
0.
0/
1'
#570000
1%
1!
10
1.
1/
0'
1=
16
15
#580000
0!
0.
0/
1'
#590000
0%
1!
00
1.
1/
0'
0=
06
05
1I
0H
1G
0F
1E
0D
1C
#600000
0!
0.
0/
1'
#610000
1%
1!
10
1.
1/
0'
1>
1<
0;
1:
09
18
16
15
#620000
0!
0.
0/
1'
#630000
0%
1!
00
1.
1/
0'
0>
0<
1;
0:
19
08
06
05
1J
0I
1H
0G
1F
0E
1D
#640000
0!
0.
0/
1'
#650000
1%
1!
10
1.
1/
0'
0@
1=
18
16
15
#660000
0!
0.
0/
1'
#670000
0%
1!
00
1.
1/
0'
1@
0=
08
06
05
0K
0J
1I
0H
1G
0F
1E
1?
1&
0@
#680000
0!
0.
0/
1'
#690000
1%
1!
10
1.
1/
0'
0?
1>
1<
0;
1:
18
16
15
1@
#700000
0!
0.
0/
1'
#710000
0$
0%
1!
03
00
1.
1/
04
0'
1?
0>
0<
1;
0:
08
06
05
0@
0A
0B
0C
0D
0E
0G
0I
02
#720000
0!
0.
0/
1'
#730000
1$
1!
13
1.
1/
14
0'
#740000
0!
0.
0/
1'
#750000
1!
1.
1/
0'
#760000
0!
0.
0/
1'
#770000
1!
1.
1/
0'
#780000
0!
0.
0/
1'
#790000
1!
1.
1/
0'
#800000
0!
0.
0/
1'
#810000
1!
1.
1/
0'
#820000
0!
0.
0/
1'
#830000
1!
1.
1/
0'
#840000
0!
0.
0/
1'
#850000
1!
1.
1/
0'
#860000
0!
0.
0/
1'
#870000
1!
1.
1/
0'
#880000
0!
0.
0/
1'
#890000
1!
1.
1/
0'
#900000
0!
0.
0/
1'
#910000
1!
1.
1/
0'
#920000
0!
0.
0/
1'
#930000
1!
1.
1/
0'
#940000
0!
0.
0/
1'
#950000
1!
1.
1/
0'
#960000
0!
0.
0/
1'
#970000
1!
1.
1/
0'
#980000
0!
0.
0/
1'
#990000
1!
1.
1/
0'
